…
***

* **`arrange()`** changes the ordering of the rows

<!-- CODE (show) -->
<pre><code class="r">diamonds %>% 
  arrange(cut, carat, desc(price))

# A tibble: 53,940 x 10
   carat cut   color clarity depth table price     x     y     z
   <dbl> <ord> <ord> <ord>   <dbl> <dbl> <int> <dbl> <dbl> <dbl>
 1 0.22  Fair  E     VS2      65.1    61   337  3.87  3.78  2.49
 2 0.23  Fair  G     VVS2     61.4    66   369  3.87  3.91  2.39
 3 0.25  Fair  F     SI2      54.4    64  1013  4.3   4.23  2.32
 4 0.25  Fair  D     VS1      61.2    55   563  4.09  4.11  2.51
 5 0.25  Fair  E     VS1      55.2    64   361  4.21  4.23  2.33
 6 0.27  Fair  E     VS1      66.4    58   371  3.99  4.02  2.66
 7 0.290 Fair  F     SI1      55.8    60  1776  4.48  4.41  2.48
 8 0.290 Fair  D     VS2      64.7    62   592  4.14  4.11  2.67
 9 0.3   Fair  D     IF       60.5    57  1208  4.47  4.35  2.67
10 0.3   Fair  E     VVS2     51      67   945  4.67  4.62  2.37
# … with 53,930 more rows</code></pre>
…
In your environment you should see now 3 loaded tables. You can click on them to take a look at the data.

</section></br>
<!-- CODE (hide) -->

##### 3. Examine
Use different methods to take a look and get a feel for the data.

<!-- CODE (hide) -->
<section class="hide"><pre><code class="r"># 3.0 Examining Data ----
# Method 1: Print it to the console
orderlines_tbl
# A tibble: 15,644 x 7
##    ...1  order.id order.line order.date          customer.id product.id quantity
##    &lt;chr&gt;    &lt;dbl&gt;      &lt;dbl&gt; &lt;dttm&gt;                    &lt;dbl&gt;      &lt;dbl&gt;    &lt;dbl&gt;
##  1 1            1          1 2015-01-07 00:00:00           2       2681        1
##  2 2            1          2 2015-01-07 00:00:00           2       2411        1
##  3 3            2          1 2015-01-10 00:00:00          10       2629        1
##  4 4            2          2 2015-01-10 00:00:00          10       2137        1
##  5 5            3          1 2015-01-10 00:00:00           6       2367        1
##  6 6            3          2 2015-01-10 00:00:00           6       1973        1
##  7 7            3          3 2015-01-10 00:00:00           6       2422        1
##  8 8            3          4 2015-01-10 00:00:00           6       2655        1
##  9 9            3          5 2015-01-10 00:00:00           6       2247        1
## 10 10           4          1 2015-01-11 00:00:00          22       2408        1
## # … with 15,634 more rows</br>
…
***

#### Data manipulation

##### 4. Joining data
Take a look at `?left_join()`. Start by merging order_items and products and then chain all joins together.

<!-- CODE (hide) -->
<section class="hide">
<pre><code class="r"># by automatically detecting a common column, if any ...
left_join(orderlines_tbl, bikes_tbl)
## Error: `by` must be supplied when `x` and `y` have no common variables.</br>
# If the data has no common column name, you can provide each column name in the "by" argument. For example, by = c("a" = "b") will match x.a to y.b. The order of the columns has to match the order of the tibbles).
left_join(orderlines_tbl, bikes_tbl, by = c("product.id" = "bike.id"))
## # A tibble: 15,644 x 15
##    ...1  order.id order.line order.date          customer.id
##    &lt;chr&gt;    &lt;dbl&gt;      &lt;dbl&gt; &lt;dttm&gt;                    &lt;dbl&gt;
##  1 1            1          1 2015-01-07 00:00:00           2
##  2 2            1          2 2015-01-07 00:00:00           2
##  3 3            2          1 2015-01-10 00:00:00          10
##  4 4            2          2 2015-01-10 00:00:00          10
##  5 5            3          1 2015-01-10 00:00:00           6
##  6 6            3          2 2015-01-10 00:00:00           6
##  7 7            3          3 2015-01-10 00:00:00           6
##  8 8            3          4 2015-01-10 00:00:00           6
##  9 9            3          5 2015-01-10 00:00:00           6
## 10 10           4          1 2015-01-11 00:00:00          22
## # … with 15,634 more rows, and 10 more variables:
## #   product.id &lt;dbl&gt;, quantity &lt;dbl&gt;, model &lt;chr&gt;,
## #   model.year &lt;dbl&gt;, frame.material &lt;chr&gt;, weight &lt;dbl&gt;,
## #   price &lt;dbl&gt;, category &lt;chr&gt;, gender &lt;chr&gt;, url &lt;chr&gt;</br>
…
sales_by_year_cat_1_tbl <- bike_orderlines_wrangled_tbl %>%</br> 
  # Select columns and add a year
  select(order_date, total_price, category_1) %>%
  mutate(year = year(order_date)) %>%</br>
  # Group by and summarize year and main catgegory
  group_by(year, category_1) %>%
  summarise(sales = sum(total_price)) %>%
  ungroup() %>%</br>
  # Format $ Text
  mutate(sales_text = scales::dollar(sales, big.mark = ".", 
                                     decimal.mark = ",", 
                                     prefix = "", 
                                     suffix = " €"))</br>
sales_by_year_cat_1_tbl  
## # A tibble: 25 x 4
##     year category_1      sales sales_text 
##    &lt;dbl&gt; &lt;chr&gt;           &lt;dbl&gt; &lt;chr&gt;      
##  1  2015 E-Bikes       1599048 1.599.048 €
##  2  2015 Gravel         663025 663.025 €  
##  3  2015 Hybrid / City  502512 502.512 €  
##  4  2015 Mountain      3254289 3.254.289 €
##  5  2015 Road          3911408 3.911.408 €
##  6  2016 E-Bikes       1916469 1.916.469 €
##  7  2016 Gravel         768794 768.794 €  
##  8  2016 Hybrid / City  512346 512.346 €  
##  9  2016 Mountain      3288733 3.288.733 €
## 10  2016 Road          4244165 4.244.165 €
## # … with 15 more rows</code></pre>
…
