…
**IV. Create features**

Now we can start adding steps onto our recipe using the pipe operator. Perhaps it is reasonable for the date of the flight to have an effect on the likelihood of a late arrival. A little bit of **feature engineering** might go a long way to improving our model. How should the date be encoded into the model? The `date` column has an R `date` object so including that column “as is” will mean that the model will convert it to a numeric format equal to the number of days after a reference date:

```r
flight_data %>% 
  distinct(date) %>% 
  mutate(numeric_date = as.numeric(date)) 
## # A tibble: 364 x 2
##   date       numeric_date
##   <date>            <dbl>
## 1 2013-01-01        15706
## 2 2013-01-02        15707
## 3 2013-01-03        15708
## 4 2013-01-04        15709
## 5 2013-01-05        15710
## # … with 359 more rows
```
…
Now, there is a single function that can be used to prepare the recipe and train the model from the resulting predictors:

```r
flights_fit <- 
  flights_wflow %>% 
  fit(data = train_data)
```

This object has the finalized recipe and fitted model objects inside. You may want to extract the model or recipe objects from the workflow. To do this, you can use the helper functions `pull_workflow_fit()` and `pull_workflow_prepped_recipe()`. For example, here we pull the fitted model object then use the `broom::tidy()` function to get a tidy tibble of model coefficients:

```r
flights_fit %>% 
  pull_workflow_fit() %>% 
  tidy()
## # A tibble: 157 x 5
##   term                estimate std.error statistic  p.value
##   <chr>                  <dbl>     <dbl>     <dbl>    <dbl>
## 1 (Intercept)          3.91    2.73           1.43 1.51e- 1
## 2 dep_time            -0.00167 0.0000141   -118.   0.      
## 3 air_time            -0.0439  0.000561     -78.4  0.      
## 4 distance             0.00686 0.00150        4.57 4.84e- 6
## 5 date_USChristmasDay  1.12    0.173          6.49 8.45e-11
## # … with 152 more rows
```

**VI. Use a trained workflow to predict**

Our goal was to predict whether a plane arrives more than 30 minutes late. We have just:

1. Built the model (`lr_mod`),
2. Created a preprocessing recipe (`flights_rec`),
3. Bundled the model and recipe (`flights_wflow`), and
4. Trained our workflow using a single call to `fit()`.

The next step is to use the trained workflow (`flights_fit`) to predict with the unseen test data, which we will do with a single call to `predict()`. The `predict()` method applies the recipe to the new data, then passes them to the fitted model.

```r
predict(flights_fit, test_data)
## # A tibble: 81,454 x 1
##   .pred_class
##   <fct>      
## 1 on_time    
## 2 on_time    
## 3 on_time    
## 4 on_time    
## 5 on_time    
## # … with 81,449 more rows
```

Because our outcome variable here is a factor, the output from `predict()` returns the predicted class: `late` versus `on_time`. But, let’s say we want the predicted class probabilities for each flight instead. To return those, we can specify `type = "prob"` when we use `predict()`. We’ll also bind the output with some variables from the test data and save them together:

```r
flights_pred <- 
  predict(flights_fit, test_data, type = "prob") %>% 
  bind_cols(test_data %>% select(arr_delay, time_hour, flight)) 

# The data look like: 
flights_pred
## # A tibble: 81,454 x 5
##   .pred_late .pred_on_time arr_delay time_hour           flight
##        <dbl>         <dbl> <fct>     <dttm>               <int>
## 1     0.0565         0.944 on_time   2013-01-01 05:00:00   1714
## 2     0.0264         0.974 on_time   2013-01-01 06:00:00     79
## 3     0.0481         0.952 on_time   2013-01-01 06:00:00    301
## 4     0.0325         0.967 on_time   2013-01-01 06:00:00     49
## 5     0.0711         0.929 on_time   2013-01-01 06:00:00   1187
## # … with 81,449 more rows
```
…
Think of `tune()` here as a placeholder. After the tuning process, we will select a single numeric value for each of these hyperparameters. For now, we specify our parsnip model object and identify the hyperparameters we will `tune()`.

We can't train this specification on a single data set (such as the entire training set) and learn what the hyperparameter values should be, but we _can_ train many models using resampled data and see which models turn out best. We can create a regular grid of values to try using some convenience functions for each hyperparameter:

```r
tree_grid <- grid_regular(cost_complexity(),
                          tree_depth(),
                          levels = 5)
```

The function [`grid_regular()`](https://tidymodels.github.io/dials/reference/grid_regular.html) is from the [dials](https://tidymodels.github.io/dials/) package. It chooses sensible values to try for each hyperparameter; here, we asked for 5 of each. Since we have two to tune, `grid_regular()` returns 5 $\times$ 5 = 25 different possible tuning combinations to try in a tidy tibble format.

```r
tree_grid
## # A tibble: 25 x 2
##    cost_complexity tree_depth
##              <dbl>      <int>
##  1    0.0000000001          1
##  2    0.0000000178          1
##  3    0.00000316            1
##  4    0.000562              1
##  5    0.1                   1
##  6    0.0000000001          4
##  7    0.0000000178          4
##  8    0.00000316            4
##  9    0.000562              4
## 10    0.1                   4
## # … with 15 more rows
```
…
Once we have our tuning results, we can both explore them through visualization and then select the best result. The function `collect_metrics()` gives us a tidy tibble with all the results. We had 25 candidate models and two metrics, `accuracy` and `roc_auc`, and we get a row for each `.metric` and model. 

```r
tree_res %>% 
  collect_metrics()
## # A tibble: 50 x 8
##    cost_complexity tree_depth .metric  .estimator  mean     n std_err .config
##              <dbl>      <int> <chr>    <chr>      <dbl> <int>   <dbl> <chr>  
##  1    0.0000000001          1 accuracy binary     0.734    10 0.00877 Model01
##  2    0.0000000001          1 roc_auc  binary     0.772    10 0.00617 Model01
##  3    0.0000000178          1 accuracy binary     0.734    10 0.00877 Model02
##  4    0.0000000178          1 roc_auc  binary     0.772    10 0.00617 Model02
##  5    0.00000316            1 accuracy binary     0.734    10 0.00877 Model03
##  6    0.00000316            1 roc_auc  binary     0.772    10 0.00617 Model03
##  7    0.000562              1 accuracy binary     0.734    10 0.00877 Model04
##  8    0.000562              1 roc_auc  binary     0.772    10 0.00617 Model04
##  9    0.1                   1 accuracy binary     0.734    10 0.00877 Model05
## 10    0.1                   1 roc_auc  binary     0.772    10 0.00617 Model05
## # … with 40 more rows
```
…
