…
```r
# Choose whatever model you want
stacked_ensemble_h2o <- h2o.loadModel("04_Modeling/h20_models/StackedEnsemble_BestOfFamily_AutoML_20200820_190823")
stacked_ensemble_h2o

predictions <- h2o.predict(stacked_ensemble_h2o, newdata = as.h2o(test_tbl))

typeof(predictions)
## [1] "environment"

predictions_tbl <- predictions %>% as_tibble()
## # A tibble: 220 x 3
##    predict    No    Yes
##    <fct>   <dbl>  <dbl>
##  1 No      0.676 0.324 
##  2 No      0.863 0.137 
##  3 No      0.951 0.0492
##  4 No      0.832 0.168 
##  5 No      0.948 0.0521
##  6 No      0.862 0.138 
##  7 No      0.849 0.151 
##  8 No      0.823 0.177 
##  9 Yes     0.553 0.447 
## 10 No      0.936 0.0638
## # … with 210 more rows
```
…
