…
## <i class="fas fa-user-tie"></i>&nbsp;Business case

### Leaderboard Vizualization

In this section we are going to visualize the leaderboard. Why do we want to visualize it? If we take a look at our leaderboard, we see the following (remember that your leaderboard might be different). Since the “leader model” is the model which has the “best” score on the leaderboard, the leader may change if you change this metric. Visualizing might help to understand it.

```r
automl_models_h2o@leaderboard %>% 
              as_tibble() %>% 
              select(-c(mean_per_class_error, rmse, mse))
## # A tibble: 32 x 4
##    model_id                                              auc logloss aucpr
##    <chr>                                               <dbl>   <dbl> <dbl>
##  1 DeepLearning_grid__1_AutoML_20200826_112031_model_1 0.863   0.291 0.631
##  2 GLM_1_AutoML_20200826_112031                        0.859   0.287 0.650
##  3 StackedEnsemble_AllModels_AutoML_20200826_112031    0.859   0.294 0.619
##  4 StackedEnsemble_BestOfFamily_AutoML_20200826_112031 0.850   0.292 0.615
##  5 GBM_5_AutoML_20200826_112031                        0.846   0.311 0.522
##  6 XGBoost_grid__1_AutoML_20200826_112031_model_1      0.846   0.373 0.505
##  7 GBM_grid__1_AutoML_20200826_112031_model_6          0.845   0.317 0.508
##  8 DeepLearning_1_AutoML_20200826_112031               0.844   0.377 0.553
##  9 GBM_grid__1_AutoML_20200826_112031_model_4          0.838   0.310 0.524
## 10 XGBoost_grid__1_AutoML_20200826_112031_model_7      0.836   0.312 0.522
## # … with 22 more rows
```
…
*Performance Charts For Business People*

The last section was about how a data scientist can understand the quality of a classifier. But the executives just want to know who is going to leave and how is that model going to help them. That is the job of the Gain & Lift plots. Gain & Lift are results-based metrics and can help communicate modeling results in terms everyone understands and cares about. The charts are used to evaluate performance of a classification model. They measure how much better one can expect to do with the predictive model comparing without a model.

For that, we need the predictions_tbl from the last session.

```
# Gain & Lift

ranked_predictions_tbl <- predictions_tbl %>%
    bind_cols(test_tbl) %>%
    select(predict:Yes, Attrition) %>%
    # Sorting from highest to lowest class probability
    arrange(desc(Yes))
## # A tibble: 220 x 4
##    predict     No   Yes Attrition
##    <fct>    <dbl> <dbl> <fct>    
##  1 Yes     0.0113 0.989 Yes      
##  2 Yes     0.0342 0.966 Yes      
##  3 Yes     0.0431 0.957 Yes      
##  4 Yes     0.0777 0.922 Yes      
##  5 Yes     0.143  0.857 No       
##  6 Yes     0.160  0.840 Yes      
##  7 Yes     0.167  0.833 Yes      
##  8 Yes     0.191  0.809 Yes      
##  9 Yes     0.235  0.765 No       
## 10 Yes     0.257  0.743 Yes      
## # … with 210 more rows
```
…
