…
```r
# 3. LIME ----

# 3.1 Making Predictions ----

predictions_tbl <- automl_leader %>% 
    h2o.predict(newdata = as.h2o(test_tbl)) %>%
    as.tibble() %>%
    bind_cols(
        test_tbl %>%
            select(Attrition, EmployeeNumber)
    )

predictions_tbl
## # A tibble: 220 x 5
##    predict    No    Yes Attrition EmployeeNumber
##    <fct>   <dbl>  <dbl> <fct>              <dbl>
##  1 Yes     0.363 0.637  Yes                    1
##  2 No      0.863 0.137  No                    15
##  3 No      0.963 0.0374 No                    20
##  4 No      0.868 0.132  No                    21
##  5 No      0.952 0.0483 No                    38
##  6 No      0.808 0.192  No                    49
##  7 No      0.930 0.0696 No                    54
##  8 Yes     0.559 0.441  No                    61
##  9 Yes     0.412 0.588  No                    62
## 10 No      0.936 0.0640 No                    70
## # … with 210 more rows
```
…
