…
***

* **`arrange()`** changes the ordering of the rows

<!-- CODE (show) -->
<pre><code class="r">diamonds %>% 
  arrange(cut, carat, desc(price))

# A tibble: 53,940 x 10
   carat cut   color clarity depth table price     x     y     z
   <dbl> <ord> <ord> <ord>   <dbl> <dbl> <int> <dbl> <dbl> <dbl>
 1 0.22  Fair  E     VS2      65.1    61   337  3.87  3.78  2.49
 2 0.23  Fair  G     VVS2     61.4    66   369  3.87  3.91  2.39
 3 0.25  Fair  F     SI2      54.4    64  1013  4.3   4.23  2.32
 4 0.25  Fair  D     VS1      61.2    55   563  4.09  4.11  2.51
 5 0.25  Fair  E     VS1      55.2    64   361  4.21  4.23  2.33
 6 0.27  Fair  E     VS1      66.4    58   371  3.99  4.02  2.66
 7 0.290 Fair  F     SI1      55.8    60  1776  4.48  4.41  2.48
 8 0.290 Fair  D     VS2      64.7    62   592  4.14  4.11  2.67
 9 0.3   Fair  D     IF       60.5    57  1208  4.47  4.35  2.67
10 0.3   Fair  E     VVS2     51      67   945  4.67  4.62  2.37
# … with 53,930 more rows</code></pre>
…
