…
#### Factors

<a href="https://forcats.tidyverse.org/index.html" target="_blank">
<img src="/img/icons/logo_forcats.svg" align="right" style="width:200px; height:200px; padding:0px 0px 10px 10px; margin-top:0px; margin-bottom:0px;"/>
</a>

In the business case we are working with the data structure `factors`. R uses factors to handle categorical variables, variables that have a fixed and known set of possible values. Factors are also helpful for reordering character vectors to improve display. The goal of the `forcats` package is to provide a suite of tools that solve common problems with factors, including changing the order of levels or the values. `forcats` is part of the core tidyverse, so you can load it with `library(tidyverse)` or `library(forcats)`.

Take a look at the following example:

<pre><code class="r">library(tidyverse)
starwars %>% 
  filter(!is.na(species)) %>%
  count(species, sort = TRUE)
## # A tibble: 37 x 2
##    species      n
##    &lt;chr&gt;    &lt;int&gt;
##  1 Human       35
##  2 Droid        6
##  3 Gungan       3
##  4 Kaminoan     2
##  5 Mirialan     2
##  6 Twi'lek      2
##  7 Wookiee      2
##  8 Zabrak       2
##  9 Aleena       1
## 10 Besalisk     1
## # … with 27 more rows</code></pre>
…
