…
**Inspect Performance With Yardstick**

First, let’s get the data formatted for yardstick. We create a data frame with the truth (actual values as factors), estimate (predicted values as factors), and the class probability (probability of yes as numeric). We use the fct_recode() function from the forcats package to assist with recoding as Yes/No values.

```r
# Format test data and predictions for yardstick metrics
estimates_keras_tbl <- tibble(
    truth      = ... %>% ...,
    estimate   = ... %>% ...,
    class_prob = ...
)

estimates_keras_tbl
## # A tibble: 1,406 x 3
##    truth estimate class_prob
##    <fct> <fct>         <dbl>
##  1 no    yes          0.709 
##  2 no    no           0.0277
##  3 yes   yes          0.712 
##  4 no    no           0.0286
##  5 no    no           0.0807
##  6 yes   no           0.211 
##  7 no    no           0.0913
##  8 yes   no           0.251 
##  9 yes   yes          0.735 
## 10 no    no           0.302 
## # … with 1,396 more rows
```
…
Run this next script to show you what the output looks like and to test our `predict_model()` function. See how it’s the probabilities by classification. It must be in this form for `model_type = "classification"`.

```r
library(lime)
# Test our predict_model() function
predict_model(x = model_keras, newdata = x_test_tbl, type = 'raw') %>%
    tibble::as_tibble()
## # A tibble: 1,406 x 2
##       Yes    No
##     <dbl> <dbl>
##  1 0.673  0.327
##  2 0.0504 0.950
##  3 0.745  0.255
##  4 0.0412 0.959
##  5 0.0519 0.948
##  6 0.299  0.701
##  7 0.0957 0.904
##  8 0.203  0.797
##  9 0.687  0.313
## 10 0.263  0.737
## # … with 1,396 more rows
```
…
