…
*Example calls*

```r
stock_list_lst <- get_stock_list()
# get_stock_list("DOW")
# get_stock_list("SP500")

stock_list_lst
## $currency
## [1] "euro"
## 
## $constituents
## # A tibble: 30 x 1
##    label                 
##    <chr>                 
##  1 1COV.DE, Covestro     
##  2 ADS.DE, Adidas        
##  3 ALV.DE, Allianz       
##  4 BAS.DE, BASF          
##  5 BAYN.DE, Bayer        
##  6 BEI.DE, Beiersdorf    
##  7 BMW.DE, BMW           
##  8 CON.DE, Continental   
##  9 DAI.DE, Daimler       
## 10 DB1.DE, Deutsche Börse
## # … with 20 more rows
```
…
}
```

*Examples*

```r
stock_data_tbl <- get_stock_data("AAPL", from = "2020-06-01", to = "2021-01-12", mavg_short = 5, mavg_long = 8)
## # A tibble: 156 x 4
##    date       adjusted mavg_short mavg_long
##    <date>        <dbl>      <dbl>     <dbl>
##  1 2020-06-01     80.2       NA        NA  
##  2 2020-06-02     80.6       NA        NA  
##  3 2020-06-03     81.0       NA        NA  
##  4 2020-06-04     80.3       NA        NA  
##  5 2020-06-05     82.6       80.9      NA  
##  6 2020-06-08     83.1       81.5      NA  
##  7 2020-06-09     85.7       82.5      NA  
##  8 2020-06-10     87.9       83.9      82.7
##  9 2020-06-11     83.7       84.6      83.1
## 10 2020-06-12     84.4       84.9      83.6
## # … with 146 more rows
```
…
